{
    "articles":  [
                     {
                         "id":  1302,
                         "source_id":  5,
                         "original_title":  "Exclusive: Lakshmi Parvathi Speaks Without Filters",
                         "original_content":  "Lakshmi Parvathi, General Secretary of the YSR Congress Party, shared her views in an exclusive interaction with senior journalist GR Maharshi for Peoples Feedback. The conversation covered a wide range of political developments in Andhra Pradesh and reflected her characteristic style of speaking. During the discussion, she raised concerns about EVMs and expressed suspicions about their functioning. When asked a pointed question on how YSRCP plans to win in 2029 if EVMs are indeed an issue, Lakshmi Parvathi responded that the party would be far more vigilant in the future. She stated that they would work on creating awareness and sensitizing people to ensure better oversight during elections. She also addressed allegations related to women trafficking during YSRCP rule, that were raised by Pawan Kalyan. She also turned the focus toward the current alliance government, alleging that there has been a rise in violence against women. She claimed that hundreds of such incidents have taken place across the state, making it a serious concern. Apart from these topics, she spoke on several other political and social issues, making the conversation engaging throughout. The interview offers insight into her perspective on current affairs and future political strategies. Viewers can watch the full interview here:",
                         "original_url":  "https://www.greatandhra.com/politics/andhra-news/exclusive-lakshmi-parvathi-speaks-without-filters-154376",
                         "original_language":  "en",
                         "published_at":  "2026-04-22T07:08:51Z",
                         "translated_title":  null,
                         "translated_content":  null,
                         "rephrased_title":  "Exclusive: Lakshmi Parvathi Speaks Without Filters",
                         "rephrased_content":  "\u003cp\u003e\u003cstrong\u003e🔑 Lakshmi Parvathi, General Secretary of the YSR Congress Bloc, shared her views in an exclusive interaction with senior journalist GR Maharshi for Peoples Feedback.\u003c/strong\u003e\u003c/p\u003e\n\u003cp\u003e\u003cb\u003e📌 Key Highlights:\u003c/b\u003e\u003c/p\u003e\n\u003cul\u003e\n  \u003cli\u003e\u003cb\u003eKey development:\u003c/b\u003e The conversation covered a wide range of political developments in Andhra Pradesh and reflected her characteristic style of speaking.\u003c/li\u003e\n  \u003cli\u003e\u003cb\u003eImportant detail:\u003c/b\u003e During the discussion, she hiked concerns about EVMs and expressed suspicions nearly their functioning.\u003c/li\u003e\n  \u003cli\u003e\u003cb\u003eSignificant outcome:\u003c/b\u003e Meanwhile, when appealed to a pointed question on how YSRCP plans to win in 2029 if EVMs are indeed an matter, Lakshmi Parvathi responded that the party would be far more vigilant in the future.\u003c/li\u003e\n\u003c/ul\u003e\n\u003cp\u003eShe stated that they would project on creating awareness and sensitizing people to ensure better oversight during elections. She also addressed allegations related to women trafficking in the course of YSRCP rule, that were hiked by Pawan Kalyan. According to officials, she furthermore turned the focus toward the current alliance authorities, alleging that there has been a rise in violence against women.\u003c/p\u003e\n\u003cp\u003eShe alleged that hundreds of such incidents have taken place across the state, making it a serious issue. Apart from these topics, she spoke on several other political and social issues, making the conversation engaging throughout. In this context, the interview offers insight into her perspective on current affairs and future political strategies. Viewers can watch the full interview here:\u003c/p\u003e\n\u003cp\u003e\u003ci\u003e⏩ What\u0027s Next: In this context, the interview offers insight into her perspective on current affairs and future political strategies.\u003c/i\u003e\u003c/p\u003e",
                         "telugu_title":  "",
                         "telugu_content":  "",
                         "category":  "Home",
                         "slug":  "exclusive-lakshmi-parvathi-speaks-without-filters",
                         "tags":  [
                                      "news",
                                      "home"
                                  ],
                         "content_hash":  "fe21e59dbefe541a58460f2df84327e9c879b50aea08faefee845d45635ce3ee",
                         "is_duplicate":  false,
                         "flag":  "A",
                         "ai_status":  "LOCAL_PARAPHRASE",
                         "rank_score":  0.0,
                         "image_url":  "/placeholders/general.png",
                         "author":  null,
                         "submitted_by":  null,
                         "created_at":  "2026-04-22T02:01:59Z",
                         "updated_at":  "2026-04-22T02:10:03.864364Z",
                         "processed_at":  "2026-04-22T02:06:31.368449Z",
                         "source_name":  "GreatAndhra"
                     }
                 ],
    "total":  218,
    "page":  1,
    "page_size":  1,
    "total_pages":  218
}
