锘縶
    "articles":  [
                     {
                         "id":  1308,
                         "source_id":  7,
                         "original_title":  "脿掳聼脿掳戮脿掳虏脿卤聙脿掳碌脿卤聛脿掳隆脿卤聧芒聙聦脿掳虏脿卤聥 脿掳碌脿掳驴脿掳路脿掳戮脿掳娄脿掳聜. 脿掳職脿掳篓脿掳驴脿掳陋脿卤聥脿掳炉脿掳驴脿掳篓 脿掳陋脿卤聧脿掳掳脿掳庐脿卤聛脿掳聳 脿掳娄脿掳掳脿卤聧脿掳露脿掳聲 脿掳篓脿掳驴脿掳掳脿卤聧脿掳庐脿掳戮脿掳陇",
                         "original_content":  "脿掳聼脿掳戮脿掳虏脿卤聙脿掳碌脿卤聛脿掳隆脿卤聧芒聙聦脿掳虏脿卤聥 脿掳碌脿掳驴脿掳路脿掳戮脿掳娄脿掳聜. 脿掳陋脿卤聧脿掳掳脿掳庐脿卤聛脿掳聳 脿掳赂脿卤聙脿掳篓脿掳驴脿掳炉脿掳掳脿卤聧 脿掳娄脿掳掳脿卤聧脿掳露脿掳聲 脿掳篓脿掳驴脿掳掳脿卤聧脿掳庐脿掳戮脿掳陇 脿掳篓脿掳聼脿卤聛脿掳隆脿卤聛 脿掳職脿掳驴脿掳聼脿卤聧脿掳聼脿掳驴脿掳卢脿掳戮脿掳卢脿卤聛 脿掳\u0085脿掳虏脿掳驴脿掳炉脿掳戮脿掳赂脿卤聧 脿掳陇脿卤聧脿掳掳脿掳驴脿掳陋脿卤聛脿掳掳脿掳篓脿卤聡脿掳篓脿掳驴 脿掳碌脿掳掳脿掳陋脿卤聧脿掳掳脿掳赂脿掳戮脿掳娄脿卤聧 脿掳聲脿掳篓脿卤聧脿掳篓脿卤聛脿掳庐脿卤聜脿掳露脿掳戮脿掳掳脿卤聛. 脿掳聸脿掳戮脿掳陇脿掳驴 脿掳篓脿卤聤脿掳陋脿卤聧脿掳陋脿掳驴 脿掳掳脿掳戮脿掳碌脿掳隆脿掳聜脿掳陇脿卤聥 脿掳鹿脿卤聢脿掳娄脿掳掳脿掳戮脿掳卢脿掳戮脿掳娄脿卤聧 脿掳虏脿卤聥脿掳篓脿掳驴 脿掳聯 脿掳陋脿卤聧脿掳掳脿卤聢脿掳碌脿卤聡脿掳聼脿卤聧 脿掳聠脿掳赂脿卤聧脿掳陋脿掳陇脿卤聧脿掳掳脿掳驴脿掳虏脿卤聥 脿掳聲脿卤聛脿掳聼脿卤聛脿掳聜脿掳卢 脿掳赂脿掳颅脿卤聧脿掳炉脿卤聛脿掳虏脿卤聛 脿掳職脿卤聡脿掳掳脿卤聧脿掳職脿掳戮脿掳掳脿卤聛. 脿掳\u0085脿掳炉脿掳驴脿掳陇脿卤聡 脿掳職脿掳驴脿掳聲脿掳驴脿掳陇脿卤聧脿掳赂 脿掳陋脿卤聤脿掳聜脿掳娄脿卤聛脿掳陇脿卤聜 脿掳聢脿掳炉脿掳篓 脿掳陇脿卤聛脿掳娄脿掳驴脿掳露脿卤聧脿掳碌脿掳戮脿掳赂 脿掳碌脿掳驴脿掳隆脿掳驴脿掳職脿掳戮脿掳掳脿卤聛. 脿掳聴脿卤聛脿掳聜脿掳隆脿卤聠脿掳陋脿卤聥脿掳聼脿卤聛脿掳陇脿卤聥 脿掳聢脿掳炉脿掳篓 脿掳庐脿卤聝脿掳陇脿掳驴 脿掳職脿卤聠脿掳聜脿掳娄脿掳驴脿掳篓脿掳聼脿卤聧脿掳虏脿卤聛 脿掳碌脿卤聢脿掳娄脿卤聧脿掳炉脿卤聛脿掳虏脿卤聛 脿掳搂脿卤聧脿掳掳脿卤聛脿掳碌脿卤聙脿掳聲脿掳掳脿掳驴脿掳聜脿掳職脿掳戮脿掳掳脿卤聛. 脿掳聢 脿掳聲脿卤聧脿掳掳脿掳庐脿掳聜脿掳虏脿卤聥脿掳篓脿卤聡 脿掳陇脿卤聠脿掳虏脿卤聛脿掳聴脿卤聛 脿掳赂脿掳驴脿掳篓脿卤聙 脿掳陋脿卤聧脿掳掳脿掳庐脿卤聛脿掳聳脿卤聛脿掳虏脿卤聛 脿掳赂脿掳聜脿掳陇脿掳戮脿掳陋脿掳聜 脿掳陇脿卤聠脿掳虏脿掳驴脿掳炉脿掳聹脿卤聡脿掳赂脿卤聧脿掳陇脿卤聛脿掳篓脿卤聧脿掳篓脿掳戮脿掳掳脿卤聛. 脿掳聲脿卤聝脿掳路脿卤聧脿掳拢脿掳戮 脿掳聹脿掳驴脿掳虏脿卤聧脿掳虏脿掳戮脿掳虏脿卤聥脿掳篓脿掳驴 脿掳聲脿掳戮脿掳聹 脿掳聴脿卤聧脿掳掳脿掳戮脿掳庐脿掳聜脿掳虏脿卤聥 脿掳陋脿卤聛脿掳聼脿卤聧脿掳聼脿掳驴脿掳篓 脿掳職脿掳驴脿掳聼脿卤聧脿掳聼脿掳驴脿掳篓脿掳卢脿掳戮脿掳卢脿卤聛 脿掳陇脿掳聜脿掳隆脿卤聧脿掳掳脿掳驴 脿掳娄脿掳驴脿掳聴脿卤聧脿掳聴脿掳聹 脿掳掳脿掳職脿掳炉脿掳驴脿掳陇 脿掳陇脿卤聧脿掳掳脿掳驴脿掳陋脿卤聛脿掳掳脿掳篓脿卤聡脿掳篓脿掳驴 脿掳庐脿掳鹿脿掳戮脿掳掳脿掳楼脿掳驴. 脿掳聠脿掳炉脿掳篓 脿掳碌脿掳戮脿掳掳脿掳赂脿卤聛脿掳隆脿掳驴脿掳聴脿掳戮 脿掳聡脿掳聜脿掳隆脿掳赂脿卤聧脿掳聼脿卤聧脿掳掳脿卤聙脿掳虏脿卤聥脿掳聲脿掳驴 脿掳碌脿掳職脿卤聧脿掳職脿掳戮脿掳掳脿卤聛. 脿掳聲脿卤聠脿掳掳脿卤聙脿掳掳脿卤聧 脿掳陋脿卤聧脿掳掳脿掳戮脿掳掳脿掳聜脿掳颅脿掳聜脿掳虏脿卤聥 脿掳陇脿掳聜脿掳隆脿卤聧脿掳掳脿掳驴 脿掳娄脿掳聴脿卤聧脿掳聴脿掳掳 脿掳赂脿掳鹿脿掳戮脿掳炉 脿掳娄脿掳掳脿卤聧脿掳露脿掳聲脿卤聛脿掳隆脿掳驴脿掳聴脿掳戮 脿掳陋脿掳篓脿掳驴脿掳職脿卤聡脿掳露脿掳戮脿掳掳脿卤聛.1984脿掳虏脿卤聥 \u0027脿掳赂脿掳聜脿掳陇脿掳戮脿掳篓脿掳聜\u0027 脿掳職脿掳驴脿掳陇脿卤聧脿掳掳脿掳聜脿掳陇脿卤聥 脿掳隆脿卤聢脿掳掳脿卤聠脿掳聲脿卤聧脿掳聼脿掳掳脿卤聧 脿掳\u0085脿掳炉脿卤聧脿掳炉脿掳戮脿掳掳脿卤聛. 脿掳陇脿卤聤脿掳虏脿掳驴 脿掳庐脿卤聜脿掳碌脿卤聙 脿掳鹿脿掳驴脿掳聼脿卤聧 脿掳\u0085脿掳炉脿掳驴脿掳聜脿掳娄脿掳驴. 脿掳陇脿掳掳脿卤聧脿掳碌脿掳戮脿掳陇 脿掳篓脿掳戮 脿掳陋脿卤聡脿掳掳脿卤聛 脿掳娄脿卤聛脿掳掳脿卤聧脿掳聴, 脿掳陋脿卤聧脿掳掳脿掳鲁脿掳炉脿掳聜, 脿掳陋脿卤聧脿掳掳脿卤聡脿掳庐脿掳驴脿掳聜脿掳職脿掳驴 脿掳職脿卤聜脿掳隆脿卤聛, 脿掳掳脿卤聢脿掳陇脿卤聛 脿掳颅脿掳戮脿掳掳脿掳陇脿掳聜 脿掳陇脿掳娄脿掳驴脿掳陇脿掳掳 脿掳職脿掳驴脿掳陇脿卤聧脿掳掳脿掳戮脿掳虏脿掳陇脿卤聥 脿掳娄脿掳掳脿卤聧脿掳露脿掳聲脿卤聛脿掳隆脿掳驴脿掳聴脿掳戮 脿掳陋脿卤聡脿掳掳脿卤聛 脿掳陇脿卤聠脿掳職脿卤聧脿掳職脿卤聛脿掳聲脿卤聛脿掳篓脿卤聧脿掳篓脿掳戮脿掳掳脿卤聛. 脿掳聯脿掳碌脿卤聢脿掳陋脿卤聛 脿掳娄脿掳掳脿卤聧脿掳露脿掳聲脿掳陇脿卤聧脿掳碌脿掳聜 脿掳職脿卤聡脿掳赂脿卤聧脿掳陇脿卤聜脿掳篓脿卤聡 脿掳職脿掳驴脿掳篓脿卤聧脿掳篓 脿掳職脿掳驴脿掳篓脿卤聧脿掳篓 脿掳陋脿掳戮脿掳陇脿卤聧脿掳掳脿掳虏脿卤聛 脿掳聲脿卤聜脿掳隆脿掳戮 脿掳職脿卤聡脿掳露脿掳戮脿掳掳脿卤聛. 1976脿掳虏脿卤聥 \u0027脿掳聴脿掳掳脿卤聛脿掳隆脿掳戮脿掳職脿掳虏脿掳聜\u0027 脿掳庐脿卤聜脿掳碌脿卤聙脿掳陇脿卤聥 脿掳庐脿卤聤脿掳娄脿掳虏脿卤聛脿掳陋脿卤聠脿掳聼脿卤聧脿掳聼脿掳驴. 脿掳颅脿卤聢脿掳掳脿掳碌脿掳娄脿卤聧脿掳碌脿卤聙脿掳陋脿掳聜, 脿掳娄脿掳露脿掳戮脿掳碌脿掳陇脿掳戮脿掳掳脿掳聜脿掳陇脿卤聥 脿掳陋脿掳戮脿掳聼脿卤聛 脿掳聹脿掳戮脿掳陇脿掳驴脿掳掳脿掳陇脿卤聧脿掳篓脿掳戮脿掳虏脿卤聛, 脿掳聹脿掳戮脿掳聜脿掳卢脿卤聙脿掳掳脿卤聠脿掳隆脿卤聧脿掳隆脿掳驴, 脿掳娄脿掳掳脿卤聧脿掳聹脿掳戮 脿掳陇脿掳娄脿掳驴脿掳陇脿掳掳 脿掳赂脿掳驴脿掳篓脿掳驴脿掳庐脿掳戮脿掳虏脿卤聧脿掳虏脿卤聥 脿掳赂脿掳鹿脿掳戮脿掳炉 脿掳陋脿掳戮脿掳陇脿卤聧脿掳掳脿掳虏脿卤聛 脿掳職脿卤聡脿掳露脿掳戮脿掳掳脿卤聛. 脿掳篓脿掳聼脿卤聛脿掳隆脿掳驴脿掳聴脿掳戮 30 脿掳赂脿掳驴脿掳篓脿掳驴脿掳庐脿掳戮脿掳虏脿卤聛 脿掳職脿卤聡脿掳赂脿掳驴脿掳篓 脿掳職脿掳驴脿掳聼脿卤聧脿掳聼脿掳驴脿掳卢脿掳戮脿掳卢脿卤聛. 脿掳娄脿掳掳脿卤聧脿掳露脿掳聲脿卤聛脿掳隆脿掳驴脿掳聴脿掳戮 12 脿掳庐脿卤聜脿掳碌脿卤聙脿掳赂脿卤聧 脿掳陇脿卤聙脿掳露脿掳戮脿掳掳脿卤聛. 49 脿掳職脿掳驴脿掳陇脿卤聧脿掳掳脿掳戮脿掳虏脿掳聲脿卤聛 脿掳聲脿卤聥-脿掳隆脿卤聢脿掳掳脿卤聠脿掳聲脿卤聧脿掳聼脿掳掳脿卤聧芒聙聦脿掳聴脿掳戮 脿掳陋脿掳篓脿掳驴脿掳職脿卤聡脿掳露脿掳戮脿掳掳脿卤聛. 脿掳篓脿掳驴脿掳掳脿卤聧脿掳庐脿掳戮脿掳陇脿掳聴脿掳戮脿掳篓脿卤聜 脿掳陋脿掳虏脿卤聛 脿掳赂脿掳驴脿掳篓脿掳驴脿掳庐脿掳戮脿掳虏脿掳篓脿掳驴 脿掳陇脿卤聠脿掳掳脿掳聲脿卤聠脿掳聲脿卤聧脿掳聲脿掳驴脿掳聜脿掳職脿掳戮脿掳掳脿卤聛. 脿掳娄脿掳驴脿掳碌脿掳聜脿掳聴脿掳陇 脿掳鹿脿卤聙脿掳掳脿卤聥脿掳炉脿掳驴脿掳篓脿卤聧 脿掳赂脿卤聦脿掳聜脿掳娄脿掳掳脿卤聧脿掳炉脿掳篓脿掳驴 脿掳聼脿掳戮脿掳虏脿卤聙脿掳碌脿卤聛脿掳隆脿卤聧芒聙聦脿掳聲脿掳驴 脿掳陋脿掳掳脿掳驴脿掳職脿掳炉脿掳聜 脿掳職脿卤聡脿掳赂脿掳驴脿掳聜脿掳娄脿掳驴 脿掳聢脿掳炉脿掳篓脿卤聡. 脿掳聢脿掳炉脿掳篓 脿掳娄脿掳掳脿卤聧脿掳露脿掳聲脿掳陇脿卤聧脿掳碌脿掳聜脿掳虏脿卤聥 脿掳職脿卤聡脿掳赂脿掳驴脿掳篓 脿掳聯 脿掳赂脿掳驴脿掳篓脿掳驴脿掳庐脿掳戮脿掳虏脿卤聥 脿掳赂脿卤聦脿掳聜脿掳娄脿掳掳脿卤聧脿掳炉脿掳篓脿掳驴 脿掳掳脿卤聠脿掳聜脿掳隆脿卤聥 脿掳鹿脿卤聙脿掳掳脿卤聥脿掳炉脿掳驴脿掳篓脿卤聧芒聙聦脿掳聴脿掳戮 脿掳陇脿卤聙脿掳赂脿卤聛脿掳聲脿卤聛脿掳篓脿卤聧脿掳篓脿掳戮脿掳掳脿卤聛. 脿掳娄脿卤聙脿掳篓脿掳驴脿掳聲脿掳聜脿掳聼脿卤聡 脿掳庐脿卤聛脿掳聜脿掳娄脿卤聛 脿掳聠脿掳庐脿卤聠 脿掳篓脿掳聼脿掳驴脿掳聜脿掳職脿掳驴脿掳篓 \u0027脿掳庐脿掳篓脿掳碌脿掳掳脿掳戮脿掳虏脿掳驴 脿掳陋脿卤聠脿掳鲁脿卤聧脿掳虏脿掳驴\u0027 脿掳掳脿掳驴脿掳虏脿卤聙脿掳聹脿卤聢脿掳聜脿掳娄脿掳驴. 脿掳陇脿掳掳脿卤聧脿掳碌脿掳戮脿掳陇 脿掳職脿掳驴脿掳聼脿卤聧脿掳聼脿掳驴脿掳卢脿掳戮脿掳卢脿卤聛 脿掳陇脿卤聙脿掳赂脿掳驴脿掳篓 \u0027脿掳聴脿卤聠脿掳虏脿卤聛脿掳陋脿卤聛\u0027 脿掳職脿掳驴脿掳陇脿卤聧脿掳掳脿掳聜 脿掳陋脿卤聧脿掳掳脿卤聡脿掳聲脿卤聧脿掳路脿掳聲脿卤聛脿掳虏脿掳聲脿卤聛 脿掳庐脿卤聛脿掳聜脿掳娄脿卤聛脿掳聲脿卤聤脿掳職脿卤聧脿掳職脿掳驴脿掳聜脿掳娄脿掳驴. 脿掳聡脿掳聜脿掳隆脿掳赂脿卤聧脿掳聼脿卤聧脿掳掳脿卤聙脿掳虏脿卤聥 脿掳聡脿掳虏脿掳戮 脿掳篓脿掳聼脿卤聛脿掳隆脿卤聛, 脿掳娄脿掳掳脿卤聧脿掳露脿掳聲脿卤聛脿掳隆脿卤聛, 脿掳篓脿掳驴脿掳掳脿卤聧脿掳庐脿掳戮脿掳陇脿掳聴脿掳戮 脿掳聠脿掳聲脿掳聼脿卤聧脿掳聼脿卤聛脿掳聲脿卤聛脿掳篓脿卤聧脿掳篓 脿掳職脿掳驴脿掳聼脿卤聧脿掳聼脿掳驴脿掳卢脿掳戮脿掳卢脿卤聛. 脿掳掳脿掳戮脿掳聹脿掳聲脿卤聙脿掳炉脿掳戮脿掳虏脿卤聧脿掳虏脿卤聥脿掳篓脿卤聜 脿掳聣脿掳篓脿卤聧脿掳篓脿掳戮脿掳掳脿卤聛. 脿掳陇脿卤聤脿掳虏脿卤聛脿掳陇 脿掳聹脿掳篓脿掳陇脿掳戮 脿掳陋脿掳戮脿掳掳脿卤聧脿掳聼脿卤聙脿掳虏脿卤聥 脿掳職脿卤聡脿掳掳脿掳戮脿掳掳脿卤聛. 1998脿掳虏脿卤聥 脿掳颅脿掳戮脿掳聹脿掳戮脿掳陋脿掳戮脿掳虏脿卤聥脿掳聲脿掳驴 脿掳碌脿卤聠脿掳鲁脿卤聧脿掳虏脿掳戮脿掳掳脿卤聛. 脿掳庐脿掳戮脿掳聹脿卤聙 脿掳陋脿卤聧脿掳掳脿掳搂脿掳戮脿掳篓脿掳驴 脿掳碌脿掳戮脿掳聹脿卤聧 脿掳陋脿卤聡脿掳炉脿掳驴, 脿掳聨脿掳虏脿卤聧.脿掳聲脿卤聠 脿掳\u0085脿掳娄脿卤聧脿掳碌脿掳戮脿掳篓脿卤聙, 脿掳碌脿卤聠脿掳聜脿掳聲脿掳炉脿卤聧脿掳炉 脿掳篓脿掳戮脿掳炉脿掳隆脿卤聛, 脿掳碌脿掳驴脿掳娄脿卤聧脿掳炉脿掳戮 脿掳赂脿掳戮脿掳聴脿掳掳脿卤聧 脿掳陇脿掳娄脿掳驴脿掳陇脿掳掳脿卤聛脿掳虏脿掳陇脿卤聥 脿掳聢脿掳炉脿掳篓脿掳聲脿卤聛 脿掳赂脿掳篓脿卤聧脿掳篓脿掳驴脿掳鹿脿掳驴脿掳陇 脿掳赂脿掳聜脿掳卢脿掳聜脿掳搂脿掳戮脿掳虏脿卤聛 脿掳聣脿掳篓脿卤聧脿掳篓脿掳戮脿掳炉脿掳驴.",
                         "original_url":  "https://www.sakshi.com/telugu-news/movies/tollywood-producer-chitti-babu-passed-away-2766671",
                         "original_language":  "te",
                         "published_at":  "2026-04-22T02:02:26.847655Z",
                         "translated_title":  null,
                         "translated_content":  null,
                         "rephrased_title":  "脿掳聼脿掳戮脿掳虏脿卤聙脿掳碌脿卤聛脿掳隆脿卤聧芒聙聦脿掳虏脿卤聥 脿掳碌脿掳驴脿掳路脿掳戮脿掳娄脿掳聜. 脿掳職脿掳篓脿掳驴脿掳陋脿卤聥脿掳炉脿掳驴脿掳篓 脿掳陋脿卤聧脿掳掳脿掳庐脿卤聛脿掳聳 脿掳娄脿掳掳脿卤聧脿掳露脿掳聲 脿掳篓脿掳驴脿掳掳脿卤聧脿掳庐脿掳戮脿掳陇",
                         "rephrased_content":  "脿掳聼脿掳戮脿掳虏脿卤聙脿掳碌脿卤聛脿掳隆脿卤聧芒聙聦脿掳虏脿卤聥 脿掳碌脿掳驴脿掳路脿掳戮脿掳娄脿掳聜. 脿掳陋脿卤聧脿掳掳脿掳庐脿卤聛脿掳聳 脿掳赂脿卤聙脿掳篓脿掳驴脿掳炉脿掳掳脿卤聧 脿掳娄脿掳掳脿卤聧脿掳露脿掳聲 脿掳篓脿掳驴脿掳掳脿卤聧脿掳庐脿掳戮脿掳陇 脿掳篓脿掳聼脿卤聛脿掳隆脿卤聛 脿掳職脿掳驴脿掳聼脿卤聧脿掳聼脿掳驴脿掳卢脿掳戮脿掳卢脿卤聛 脿掳\u0085脿掳虏脿掳驴脿掳炉脿掳戮脿掳赂脿卤聧 脿掳陇脿卤聧脿掳掳脿掳驴脿掳陋脿卤聛脿掳掳脿掳篓脿卤聡脿掳篓脿掳驴 脿掳碌脿掳掳脿掳陋脿卤聧脿掳掳脿掳赂脿掳戮脿掳娄脿卤聧 脿掳聲脿掳篓脿卤聧脿掳篓脿卤聛脿掳庐脿卤聜脿掳露脿掳戮脿掳掳脿卤聛. 脿掳聸脿掳戮脿掳陇脿掳驴 脿掳篓脿卤聤脿掳陋脿卤聧脿掳陋脿掳驴 脿掳掳脿掳戮脿掳碌脿掳隆脿掳聜脿掳陇脿卤聥 脿掳鹿脿卤聢脿掳娄脿掳掳脿掳戮脿掳卢脿掳戮脿掳娄脿卤聧 脿掳虏脿卤聥脿掳篓脿掳驴 脿掳聯 脿掳陋脿卤聧脿掳掳脿卤聢脿掳碌脿卤聡脿掳聼脿卤聧 脿掳聠脿掳赂脿卤聧脿掳陋脿掳陇脿卤聧脿掳掳脿掳驴脿掳虏脿卤聥 脿掳聲脿卤聛脿掳聼脿卤聛脿掳聜脿掳卢 脿掳赂脿掳颅脿卤聧脿掳炉脿卤聛脿掳虏脿卤聛 脿掳職脿卤聡脿掳掳脿卤聧脿掳職脿掳戮脿掳掳脿卤聛. 脿掳\u0085脿掳炉脿掳驴脿掳陇脿卤聡 脿掳職脿掳驴脿掳聲脿掳驴脿掳陇脿卤聧脿掳赂 脿掳陋脿卤聤脿掳聜脿掳娄脿卤聛脿掳陇脿卤聜 脿掳聢脿掳炉脿掳篓 脿掳陇脿卤聛脿掳娄脿掳驴脿掳露脿卤聧脿掳碌脿掳戮脿掳赂 脿掳碌脿掳驴脿掳隆脿掳驴脿掳職脿掳戮脿掳掳脿卤聛. 脿掳聴脿卤聛脿掳聜脿掳隆脿卤聠脿掳陋脿卤聥脿掳聼脿卤聛脿掳陇脿卤聥 脿掳聢脿掳炉脿掳篓 脿掳庐脿卤聝脿掳陇脿掳驴 脿掳職脿卤聠脿掳聜脿掳娄脿掳驴脿掳篓脿掳聼脿卤聧脿掳虏脿卤聛 脿掳碌脿卤聢脿掳娄脿卤聧脿掳炉脿卤聛脿掳虏脿卤聛 脿掳搂脿卤聧脿掳掳脿卤聛脿掳碌脿卤聙脿掳聲脿掳掳脿掳驴脿掳聜脿掳職脿掳戮脿掳掳脿卤聛. 脿掳聢 脿掳聲脿卤聧脿掳掳脿掳庐脿掳聜脿掳虏脿卤聥脿掳篓脿卤聡 脿掳陇脿卤聠脿掳虏脿卤聛脿掳聴脿卤聛 脿掳赂脿掳驴脿掳篓脿卤聙 脿掳陋脿卤聧脿掳掳脿掳庐脿卤聛脿掳聳脿卤聛脿掳虏脿卤聛 脿掳赂脿掳聜脿掳陇脿掳戮脿掳陋脿掳聜 脿掳陇脿卤聠脿掳虏脿掳驴脿掳炉脿掳聹脿卤聡脿掳赂脿卤聧脿掳陇脿卤聛脿掳篓脿卤聧脿掳篓脿掳戮脿掳掳脿卤聛. 脿掳聲脿卤聝脿掳路脿卤聧脿掳拢脿掳戮 脿掳聹脿掳驴脿掳虏脿卤聧脿掳虏脿掳戮脿掳虏脿卤聥脿掳篓脿掳驴 脿掳聲脿掳戮脿掳聹 脿掳聴脿卤聧脿掳掳脿掳戮脿掳庐脿掳聜脿掳虏脿卤聥 脿掳陋脿卤聛脿掳聼脿卤聧脿掳聼脿掳驴脿掳篓 脿掳職脿掳驴脿掳聼脿卤聧脿掳聼脿掳驴脿掳篓脿掳卢脿掳戮脿掳卢脿卤聛 脿掳陇脿掳聜脿掳隆脿卤聧脿掳掳脿掳驴 脿掳娄脿掳驴脿掳聴脿卤聧脿掳聴脿掳聹 脿掳掳脿掳職脿掳炉脿掳驴脿掳陇 脿掳陇脿卤聧脿掳掳脿掳驴脿掳陋脿卤聛脿掳掳脿掳篓脿卤聡脿掳篓脿掳驴 脿掳庐脿掳鹿脿掳戮脿掳掳脿掳楼脿掳驴. 脿掳聠脿掳炉脿掳篓 脿掳碌脿掳戮脿掳掳脿掳赂脿卤聛脿掳隆脿掳驴脿掳聴脿掳戮 脿掳聡脿掳聜脿掳隆脿掳赂脿卤聧脿掳聼脿卤聧脿掳掳脿卤聙脿掳虏脿卤聥脿掳聲脿掳驴 脿掳碌脿掳職脿卤聧脿掳職脿掳戮脿掳掳脿卤聛. 脿掳聲脿卤聠脿掳掳脿卤聙脿掳掳脿卤聧 脿掳陋脿卤聧脿掳掳脿掳戮脿掳掳脿掳聜脿掳颅脿掳聜脿掳虏脿卤聥 脿掳陇脿掳聜脿掳隆脿卤聧脿掳掳脿掳驴 脿掳娄脿掳聴脿卤聧脿掳聴脿掳掳 脿掳赂脿掳鹿脿掳戮脿掳炉 脿掳娄脿掳掳脿卤聧脿掳露脿掳聲脿卤聛脿掳隆脿掳驴脿掳聴脿掳戮 脿掳陋脿掳篓脿掳驴脿掳職脿卤聡脿掳露脿掳戮脿掳掳脿卤聛.1984脿掳虏脿卤聥 \u0027脿掳赂脿掳聜脿掳陇脿掳戮脿掳篓脿掳聜\u0027 脿掳職脿掳驴脿掳陇脿卤聧脿掳掳脿掳聜脿掳陇脿卤聥 脿掳隆脿卤聢脿掳掳脿卤聠脿掳聲脿卤聧脿掳聼脿掳掳脿卤聧 脿掳\u0085脿掳炉脿卤聧脿掳炉脿掳戮脿掳掳脿卤聛. 脿掳陇脿卤聤脿掳虏脿掳驴 脿掳庐脿卤聜脿掳碌脿卤聙 脿掳鹿脿掳驴脿掳聼脿卤聧 脿掳\u0085脿掳炉脿掳驴脿掳聜脿掳娄脿掳驴. 脿掳陇脿掳掳脿卤聧脿掳碌脿掳戮脿掳陇 脿掳篓脿掳戮 脿掳陋脿卤聡脿掳掳脿卤聛 脿掳娄脿卤聛脿掳掳脿卤聧脿掳聴, 脿掳陋脿卤聧脿掳掳脿掳鲁脿掳炉脿掳聜, 脿掳陋脿卤聧脿掳掳脿卤聡脿掳庐脿掳驴脿掳聜脿掳職脿掳驴 脿掳職脿卤聜脿掳隆脿卤聛, 脿掳掳脿卤聢脿掳陇脿卤聛 脿掳颅脿掳戮脿掳掳脿掳陇脿掳聜 脿掳陇脿掳娄脿掳驴脿掳陇脿掳掳 脿掳職脿掳驴脿掳陇脿卤聧脿掳掳脿掳戮脿掳虏脿掳陇脿卤聥 脿掳娄脿掳掳脿卤聧脿掳露脿掳聲脿卤聛脿掳隆脿掳驴脿掳聴脿掳戮 脿掳陋脿卤聡脿掳掳脿卤聛 脿掳陇脿卤聠脿掳職脿卤聧脿掳職脿卤聛脿掳聲脿卤聛脿掳篓脿卤聧脿掳篓脿掳戮脿掳掳脿卤聛. 脿掳聯脿掳碌脿卤聢脿掳陋脿卤聛 脿掳娄脿掳掳脿卤聧脿掳露脿掳聲脿掳陇脿卤聧脿掳碌脿掳聜 脿掳職脿卤聡脿掳赂脿卤聧脿掳陇脿卤聜脿掳篓脿卤聡 脿掳職脿掳驴脿掳篓脿卤聧脿掳篓 脿掳職脿掳驴脿掳篓脿卤聧脿掳篓 脿掳陋脿掳戮脿掳陇脿卤聧脿掳掳脿掳虏脿卤聛 脿掳聲脿卤聜脿掳隆脿掳戮 脿掳職脿卤聡脿掳露脿掳戮脿掳掳脿卤聛. 1976脿掳虏脿卤聥 \u0027脿掳聴脿掳掳脿卤聛脿掳隆脿掳戮脿掳職脿掳虏脿掳聜\u0027 脿掳庐脿卤聜脿掳碌脿卤聙脿掳陇脿卤聥 脿掳庐脿卤聤脿掳娄脿掳虏脿卤聛脿掳陋脿卤聠脿掳聼脿卤聧脿掳聼脿掳驴. 脿掳颅脿卤聢脿掳掳脿掳碌脿掳娄脿卤聧脿掳碌脿卤聙脿掳陋脿掳聜, 脿掳娄脿掳露脿掳戮脿掳碌脿掳陇脿掳戮脿掳掳脿掳聜脿掳陇脿卤聥 脿掳陋脿掳戮脿掳聼脿卤聛 脿掳聹脿掳戮脿掳陇脿掳驴脿掳掳脿掳陇脿卤聧脿掳篓脿掳戮脿掳虏脿卤聛, 脿掳聹脿掳戮脿掳聜脿掳卢脿卤聙脿掳掳脿卤聠脿掳隆脿卤聧脿掳隆脿掳驴, 脿掳娄脿掳掳脿卤聧脿掳聹脿掳戮 脿掳陇脿掳娄脿掳驴脿掳陇脿掳掳 脿掳赂脿掳驴脿掳篓脿掳驴脿掳庐脿掳戮脿掳虏脿卤聧脿掳虏脿卤聥 脿掳赂脿掳鹿脿掳戮脿掳炉 脿掳陋脿掳戮脿掳陇脿卤聧脿掳掳脿掳虏脿卤聛 脿掳職脿卤聡脿掳露脿掳戮脿掳掳脿卤聛. 脿掳篓脿掳聼脿卤聛脿掳隆脿掳驴脿掳聴脿掳戮 30 脿掳赂脿掳驴脿掳篓脿掳驴脿掳庐脿掳戮脿掳虏脿卤聛 脿掳職脿卤聡脿掳赂脿掳驴脿掳篓 脿掳職脿掳驴脿掳聼脿卤聧脿掳聼脿掳驴脿掳卢脿掳戮脿掳卢脿卤聛. 脿掳娄脿掳掳脿卤聧脿掳露脿掳聲脿卤聛脿掳隆脿掳驴脿掳聴脿掳戮 12 脿掳庐脿卤聜脿掳碌脿卤聙脿掳赂脿卤聧 脿掳陇脿卤聙脿掳露脿掳戮脿掳掳脿卤聛. 49 脿掳職脿掳驴脿掳陇脿卤聧脿掳掳脿掳戮脿掳虏脿掳聲脿卤聛 脿掳聲脿卤聥-脿掳隆脿卤聢脿掳掳脿卤聠脿掳聲脿卤聧脿掳聼脿掳掳脿卤聧芒聙聦脿掳聴脿掳戮 脿掳陋脿掳篓脿掳驴脿掳職脿卤聡脿掳露脿掳戮脿掳掳脿卤聛. 脿掳篓脿掳驴脿掳掳脿卤聧脿掳庐脿掳戮脿掳陇脿掳聴脿掳戮脿掳篓脿卤聜 脿掳陋脿掳虏脿卤聛 脿掳赂脿掳驴脿掳篓脿掳驴脿掳庐脿掳戮脿掳虏脿掳篓脿掳驴 脿掳陇脿卤聠脿掳掳脿掳聲脿卤聠脿掳聲脿卤聧脿掳聲脿掳驴脿掳聜脿掳職脿掳戮脿掳掳脿卤聛. 脿掳娄脿掳驴脿掳碌脿掳聜脿掳聴脿掳陇 脿掳鹿脿卤聙脿掳掳脿卤聥脿掳炉脿掳驴脿掳篓脿卤聧 脿掳赂脿卤聦脿掳聜脿掳娄脿掳掳脿卤聧脿掳炉脿掳篓脿掳驴 脿掳聼脿掳戮脿掳虏脿卤聙脿掳碌脿卤聛脿掳隆脿卤聧芒聙聦脿掳聲脿掳驴 脿掳陋脿掳掳脿掳驴脿掳職脿掳炉脿掳聜 脿掳職脿卤聡脿掳赂脿掳驴脿掳聜脿掳娄脿掳驴 脿掳聢脿掳炉脿掳篓脿卤聡. 脿掳聢脿掳炉脿掳篓 脿掳娄脿掳掳脿卤聧脿掳露脿掳聲脿掳陇脿卤聧脿掳碌脿掳聜脿掳虏脿卤聥 脿掳職脿卤聡脿掳赂脿掳驴脿掳篓 脿掳聯 脿掳赂脿掳驴脿掳篓脿掳驴脿掳庐脿掳戮脿掳虏脿卤聥 脿掳赂脿卤聦脿掳聜脿掳娄脿掳掳脿卤聧脿掳炉脿掳篓脿掳驴 脿掳掳脿卤聠脿掳聜脿掳隆脿卤聥 脿掳鹿脿卤聙脿掳掳脿卤聥脿掳炉脿掳驴脿掳篓脿卤聧芒聙聦脿掳聴脿掳戮 脿掳陇脿卤聙脿掳赂脿卤聛脿掳聲脿卤聛脿掳篓脿卤聧脿掳篓脿掳戮脿掳掳脿卤聛. 脿掳娄脿卤聙脿掳篓脿掳驴脿掳聲脿掳聜脿掳聼脿卤聡 脿掳庐脿卤聛脿掳聜脿掳娄脿卤聛 脿掳聠脿掳庐脿卤聠 脿掳篓脿掳聼脿掳驴脿掳聜脿掳職脿掳驴脿掳篓 \u0027脿掳庐脿掳篓脿掳碌脿掳掳脿掳戮脿掳虏脿掳驴 脿掳陋脿卤聠脿掳鲁脿卤聧脿掳虏脿掳驴\u0027 脿掳掳脿掳驴脿掳虏脿卤聙脿掳聹脿卤聢脿掳聜脿掳娄脿掳驴. 脿掳陇脿掳掳脿卤聧脿掳碌脿掳戮脿掳陇 脿掳職脿掳驴脿掳聼脿卤聧脿掳聼脿掳驴脿掳卢脿掳戮脿掳卢脿卤聛 脿掳陇脿卤聙脿掳赂脿掳驴脿掳篓 \u0027脿掳聴脿卤聠脿掳虏脿卤聛脿掳陋脿卤聛\u0027 脿掳職脿掳驴脿掳陇脿卤聧脿掳掳脿掳聜 脿掳陋脿卤聧脿掳掳脿卤聡脿掳聲脿卤聧脿掳路脿掳聲脿卤聛脿掳虏脿掳聲脿卤聛 脿掳庐脿卤聛脿掳聜脿掳娄脿卤聛脿掳聲脿卤聤脿掳職脿卤聧脿掳職脿掳驴脿掳聜脿掳娄脿掳驴. 脿掳聡脿掳聜脿掳隆脿掳赂脿卤聧脿掳聼脿卤聧脿掳掳脿卤聙脿掳虏脿卤聥 脿掳聡脿掳虏脿掳戮 脿掳篓脿掳聼脿卤聛脿掳隆脿卤聛, 脿掳娄脿掳掳脿卤聧脿掳露脿掳聲脿卤聛脿掳隆脿卤聛, 脿掳篓脿掳驴脿掳掳脿卤聧脿掳庐脿掳戮脿掳陇脿掳聴脿掳戮 脿掳聠脿掳聲脿掳聼脿卤聧脿掳聼脿卤聛脿掳聲脿卤聛脿掳篓脿卤聧脿掳篓 脿掳職脿掳驴脿掳聼脿卤聧脿掳聼脿掳驴脿掳卢脿掳戮脿掳卢脿卤聛. 脿掳掳脿掳戮脿掳聹脿掳聲脿卤聙脿掳炉脿掳戮脿掳虏脿卤聧脿掳虏脿卤聥脿掳篓脿卤聜 脿掳聣脿掳篓脿卤聧脿掳篓脿掳戮脿掳掳脿卤聛. 脿掳陇脿卤聤脿掳虏脿卤聛脿掳陇 脿掳聹脿掳篓脿掳陇脿掳戮 脿掳陋脿掳戮脿掳掳脿卤聧脿掳聼脿卤聙脿掳虏脿卤聥 脿掳職脿卤聡脿掳掳脿掳戮脿掳掳脿卤聛. 1998脿掳虏脿卤聥 脿掳颅脿掳戮脿掳聹脿掳戮脿掳陋脿掳戮脿掳虏脿卤聥脿掳聲脿掳驴 脿掳碌脿卤聠脿掳鲁脿卤聧脿掳虏脿掳戮脿掳掳脿卤聛. 脿掳庐脿掳戮脿掳聹脿卤聙 脿掳陋脿卤聧脿掳掳脿掳搂脿掳戮脿掳篓脿掳驴 脿掳碌脿掳戮脿掳聹脿卤聧 脿掳陋脿卤聡脿掳炉脿掳驴, 脿掳聨脿掳虏脿卤聧.脿掳聲脿卤聠 脿掳\u0085脿掳娄脿卤聧脿掳碌脿掳戮脿掳篓脿卤聙, 脿掳碌脿卤聠脿掳聜脿掳聲脿掳炉脿卤聧脿掳炉 脿掳篓脿掳戮脿掳炉脿掳隆脿卤聛, 脿掳碌脿掳驴脿掳娄脿卤聧脿掳炉脿掳戮 脿掳赂脿掳戮脿掳聴脿掳掳脿卤聧 脿掳陇脿掳娄脿掳驴脿掳陇脿掳掳脿卤聛脿掳虏脿掳陇脿卤聥 脿掳聢脿掳炉脿掳篓脿掳聲脿卤聛 脿掳赂脿掳篓脿卤聧脿掳篓脿掳驴脿掳鹿脿掳驴脿掳陇 脿掳赂脿掳聜脿掳卢脿掳聜脿掳搂脿掳戮脿掳虏脿卤聛 脿掳聣脿掳篓脿卤聧脿掳篓脿掳戮脿掳炉脿掳驴.",
                         "telugu_title":  "脿掳聼脿掳戮脿掳虏脿卤聙脿掳碌脿卤聛脿掳隆脿卤聧芒聙聦脿掳虏脿卤聥 脿掳碌脿掳驴脿掳路脿掳戮脿掳娄脿掳聜. 脿掳職脿掳篓脿掳驴脿掳陋脿卤聥脿掳炉脿掳驴脿掳篓 脿掳陋脿卤聧脿掳掳脿掳庐脿卤聛脿掳聳 脿掳娄脿掳掳脿卤聧脿掳露脿掳聲 脿掳篓脿掳驴脿掳掳脿卤聧脿掳庐脿掳戮脿掳陇",
                         "telugu_content":  "\u003cp\u003e\u003cstrong\u003e冒聼聰聭 脿掳聼脿掳戮脿掳虏脿卤聙脿掳碌脿卤聛脿掳隆脿卤聧芒聙聦脿掳虏脿卤聥 脿掳碌脿掳驴脿掳路脿掳戮脿掳娄脿掳聜.\u003c/strong\u003e\u003c/p\u003e\n\u003cp\u003e\u003cb\u003e冒聼聯聦 Key Highlights:\u003c/b\u003e\u003c/p\u003e\n\u003cul\u003e\n  \u003cli\u003e\u003cb\u003eKey development:\u003c/b\u003e 脿掳陋脿卤聧脿掳掳脿掳庐脿卤聛脿掳聳 脿掳赂脿卤聙脿掳篓脿掳驴脿掳炉脿掳掳脿卤聧 脿掳娄脿掳掳脿卤聧脿掳露脿掳聲 脿掳篓脿掳驴脿掳掳脿卤聧脿掳庐脿掳戮脿掳陇 脿掳篓脿掳聼脿卤聛脿掳隆脿卤聛 脿掳職脿掳驴脿掳聼脿卤聧脿掳聼脿掳驴脿掳卢脿掳戮脿掳卢脿卤聛 脿掳\u0085脿掳虏脿掳驴脿掳炉脿掳戮脿掳赂脿卤聧 脿掳陇脿卤聧脿掳掳脿掳驴脿掳陋脿卤聛脿掳掳脿掳篓脿卤聡脿掳篓脿掳驴 脿掳碌脿掳掳脿掳陋脿卤聧脿掳掳脿掳赂脿掳戮脿掳娄脿卤聧 脿掳聲脿掳篓脿卤聧脿掳篓脿卤聛脿掳庐脿卤聜脿掳露脿掳戮脿掳掳脿卤聛.\u003c/li\u003e\n  \u003cli\u003e\u003cb\u003eImportant detail:\u003c/b\u003e 脿掳聸脿掳戮脿掳陇脿掳驴 脿掳篓脿卤聤脿掳陋脿卤聧脿掳陋脿掳驴 脿掳掳脿掳戮脿掳碌脿掳隆脿掳聜脿掳陇脿卤聥 脿掳鹿脿卤聢脿掳娄脿掳掳脿掳戮脿掳卢脿掳戮脿掳娄脿卤聧 脿掳虏脿卤聥脿掳篓脿掳驴 脿掳聯 脿掳陋脿卤聧脿掳掳脿卤聢脿掳碌脿卤聡脿掳聼脿卤聧 脿掳聠脿掳赂脿卤聧脿掳陋脿掳陇脿卤聧脿掳掳脿掳驴脿掳虏脿卤聥 脿掳聲脿卤聛脿掳聼脿卤聛脿掳聜脿掳卢 脿掳赂脿掳颅脿卤聧脿掳炉脿卤聛脿掳虏脿卤聛 脿掳職脿卤聡脿掳掳脿卤聧脿掳職脿掳戮脿掳掳脿卤聛.\u003c/li\u003e\n  \u003cli\u003e\u003cb\u003eSignificant outcome:\u003c/b\u003e Meanwhile, 脿掳\u0085脿掳炉脿掳驴脿掳陇脿卤聡 脿掳職脿掳驴脿掳聲脿掳驴脿掳陇脿卤聧脿掳赂 脿掳陋脿卤聤脿掳聜脿掳娄脿卤聛脿掳陇脿卤聜 脿掳聢脿掳炉脿掳篓 脿掳陇脿卤聛脿掳娄脿掳驴脿掳露脿卤聧脿掳碌脿掳戮脿掳赂 脿掳碌脿掳驴脿掳隆脿掳驴脿掳職脿掳戮脿掳掳脿卤聛.\u003c/li\u003e\n\u003c/ul\u003e\n\u003cp\u003e脿掳聴脿卤聛脿掳聜脿掳隆脿卤聠脿掳陋脿卤聥脿掳聼脿卤聛脿掳陇脿卤聥 脿掳聢脿掳炉脿掳篓 脿掳庐脿卤聝脿掳陇脿掳驴 脿掳職脿卤聠脿掳聜脿掳娄脿掳驴脿掳篓脿掳聼脿卤聧脿掳虏脿卤聛 脿掳碌脿卤聢脿掳娄脿卤聧脿掳炉脿卤聛脿掳虏脿卤聛 脿掳搂脿卤聧脿掳掳脿卤聛脿掳碌脿卤聙脿掳聲脿掳掳脿掳驴脿掳聜脿掳職脿掳戮脿掳掳脿卤聛. 脿掳聢 脿掳聲脿卤聧脿掳掳脿掳庐脿掳聜脿掳虏脿卤聥脿掳篓脿卤聡 脿掳陇脿卤聠脿掳虏脿卤聛脿掳聴脿卤聛 脿掳赂脿掳驴脿掳篓脿卤聙 脿掳陋脿卤聧脿掳掳脿掳庐脿卤聛脿掳聳脿卤聛脿掳虏脿卤聛 脿掳赂脿掳聜脿掳陇脿掳戮脿掳陋脿掳聜 脿掳陇脿卤聠脿掳虏脿掳驴脿掳炉脿掳聹脿卤聡脿掳赂脿卤聧脿掳陇脿卤聛脿掳篓脿卤聧脿掳篓脿掳戮脿掳掳脿卤聛. According to officials, 脿掳聲脿卤聝脿掳路脿卤聧脿掳拢脿掳戮 脿掳聹脿掳驴脿掳虏脿卤聧脿掳虏脿掳戮脿掳虏脿卤聥脿掳篓脿掳驴 脿掳聲脿掳戮脿掳聹 脿掳聴脿卤聧脿掳掳脿掳戮脿掳庐脿掳聜脿掳虏脿卤聥 脿掳陋脿卤聛脿掳聼脿卤聧脿掳聼脿掳驴脿掳篓 脿掳職脿掳驴脿掳聼脿卤聧脿掳聼脿掳驴脿掳篓脿掳卢脿掳戮脿掳卢脿卤聛 脿掳陇脿掳聜脿掳隆脿卤聧脿掳掳脿掳驴 脿掳娄脿掳驴脿掳聴脿卤聧脿掳聴脿掳聹 脿掳掳脿掳職脿掳炉脿掳驴脿掳陇 脿掳陇脿卤聧脿掳掳脿掳驴脿掳陋脿卤聛脿掳掳脿掳篓脿卤聡脿掳篓脿掳驴 脿掳庐脿掳鹿脿掳戮脿掳掳脿掳楼脿掳驴. 脿掳聠脿掳炉脿掳篓 脿掳碌脿掳戮脿掳掳脿掳赂脿卤聛脿掳隆脿掳驴脿掳聴脿掳戮 脿掳聡脿掳聜脿掳隆脿掳赂脿卤聧脿掳聼脿卤聧脿掳掳脿卤聙脿掳虏脿卤聥脿掳聲脿掳驴 脿掳碌脿掳職脿卤聧脿掳職脿掳戮脿掳掳脿卤聛. 脿掳聲脿卤聠脿掳掳脿卤聙脿掳掳脿卤聧 脿掳陋脿卤聧脿掳掳脿掳戮脿掳掳脿掳聜脿掳颅脿掳聜脿掳虏脿卤聥 脿掳陇脿掳聜脿掳隆脿卤聧脿掳掳脿掳驴 脿掳娄脿掳聴脿卤聧脿掳聴脿掳掳 脿掳赂脿掳鹿脿掳戮脿掳炉 脿掳娄脿掳掳脿卤聧脿掳露脿掳聲脿卤聛脿掳隆脿掳驴脿掳聴脿掳戮 脿掳陋脿掳篓脿掳驴脿掳職脿卤聡脿掳露脿掳戮脿掳掳脿卤聛.1984脿掳虏脿卤聥 \u0027脿掳赂脿掳聜脿掳陇脿掳戮脿掳篓脿掳聜\u0027 脿掳職脿掳驴脿掳陇脿卤聧脿掳掳脿掳聜脿掳陇脿卤聥 脿掳隆脿卤聢脿掳掳脿卤聠脿掳聲脿卤聧脿掳聼脿掳掳脿卤聧 脿掳\u0085脿掳炉脿卤聧脿掳炉脿掳戮脿掳掳脿卤聛. 脿掳陇脿卤聤脿掳虏脿掳驴 脿掳庐脿卤聜脿掳碌脿卤聙 脿掳鹿脿掳驴脿掳聼脿卤聧 脿掳\u0085脿掳炉脿掳驴脿掳聜脿掳娄脿掳驴. 脿掳陇脿掳掳脿卤聧脿掳碌脿掳戮脿掳陇 脿掳篓脿掳戮 脿掳陋脿卤聡脿掳掳脿卤聛 脿掳娄脿卤聛脿掳掳脿卤聧脿掳聴, 脿掳陋脿卤聧脿掳掳脿掳鲁脿掳炉脿掳聜, 脿掳陋脿卤聧脿掳掳脿卤聡脿掳庐脿掳驴脿掳聜脿掳職脿掳驴 脿掳職脿卤聜脿掳隆脿卤聛, 脿掳掳脿卤聢脿掳陇脿卤聛 脿掳颅脿掳戮脿掳掳脿掳陇脿掳聜 脿掳陇脿掳娄脿掳驴脿掳陇脿掳掳 脿掳職脿掳驴脿掳陇脿卤聧脿掳掳脿掳戮脿掳虏脿掳陇脿卤聥 脿掳娄脿掳掳脿卤聧脿掳露脿掳聲脿卤聛脿掳隆脿掳驴脿掳聴脿掳戮 脿掳陋脿卤聡脿掳掳脿卤聛 脿掳陇脿卤聠脿掳職脿卤聧脿掳職脿卤聛脿掳聲脿卤聛脿掳篓脿卤聧脿掳篓脿掳戮脿掳掳脿卤聛. 脿掳聯脿掳碌脿卤聢脿掳陋脿卤聛 脿掳娄脿掳掳脿卤聧脿掳露脿掳聲脿掳陇脿卤聧脿掳碌脿掳聜 脿掳職脿卤聡脿掳赂脿卤聧脿掳陇脿卤聜脿掳篓脿卤聡 脿掳職脿掳驴脿掳篓脿卤聧脿掳篓 脿掳職脿掳驴脿掳篓脿卤聧脿掳篓 脿掳陋脿掳戮脿掳陇脿卤聧脿掳掳脿掳虏脿卤聛 脿掳聲脿卤聜脿掳隆脿掳戮 脿掳職脿卤聡脿掳露脿掳戮脿掳掳脿卤聛. 1976脿掳虏脿卤聥 \u0027脿掳聴脿掳掳脿卤聛脿掳隆脿掳戮脿掳職脿掳虏脿掳聜\u0027 脿掳庐脿卤聜脿掳碌脿卤聙脿掳陇脿卤聥 脿掳庐脿卤聤脿掳娄脿掳虏脿卤聛脿掳陋脿卤聠脿掳聼脿卤聧脿掳聼脿掳驴. 脿掳颅脿卤聢脿掳掳脿掳碌脿掳娄脿卤聧脿掳碌脿卤聙脿掳陋脿掳聜, 脿掳娄脿掳露脿掳戮脿掳碌脿掳陇脿掳戮脿掳掳脿掳聜脿掳陇脿卤聥 脿掳陋脿掳戮脿掳聼脿卤聛 脿掳聹脿掳戮脿掳陇脿掳驴脿掳掳脿掳陇脿卤聧脿掳篓脿掳戮脿掳虏脿卤聛, 脿掳聹脿掳戮脿掳聜脿掳卢脿卤聙脿掳掳脿卤聠脿掳隆脿卤聧脿掳隆脿掳驴, 脿掳娄脿掳掳脿卤聧脿掳聹脿掳戮 脿掳陇脿掳娄脿掳驴脿掳陇脿掳掳 脿掳赂脿掳驴脿掳篓脿掳驴脿掳庐脿掳戮脿掳虏脿卤聧脿掳虏脿卤聥 脿掳赂脿掳鹿脿掳戮脿掳炉 脿掳陋脿掳戮脿掳陇脿卤聧脿掳掳脿掳虏脿卤聛 脿掳職脿卤聡脿掳露脿掳戮脿掳掳脿卤聛. 脿掳篓脿掳聼脿卤聛脿掳隆脿掳驴脿掳聴脿掳戮 30 脿掳赂脿掳驴脿掳篓脿掳驴脿掳庐脿掳戮脿掳虏脿卤聛 脿掳職脿卤聡脿掳赂脿掳驴脿掳篓 脿掳職脿掳驴脿掳聼脿卤聧脿掳聼脿掳驴脿掳卢脿掳戮脿掳卢脿卤聛.\u003c/p\u003e\n\u003cp\u003e脿掳娄脿掳掳脿卤聧脿掳露脿掳聲脿卤聛脿掳隆脿掳驴脿掳聴脿掳戮 12 脿掳庐脿卤聜脿掳碌脿卤聙脿掳赂脿卤聧 脿掳陇脿卤聙脿掳露脿掳戮脿掳掳脿卤聛. 49 脿掳職脿掳驴脿掳陇脿卤聧脿掳掳脿掳戮脿掳虏脿掳聲脿卤聛 脿掳聲脿卤聥-脿掳隆脿卤聢脿掳掳脿卤聠脿掳聲脿卤聧脿掳聼脿掳掳脿卤聧芒聙聦脿掳聴脿掳戮 脿掳陋脿掳篓脿掳驴脿掳職脿卤聡脿掳露脿掳戮脿掳掳脿卤聛. 脿掳篓脿掳驴脿掳掳脿卤聧脿掳庐脿掳戮脿掳陇脿掳聴脿掳戮脿掳篓脿卤聜 脿掳陋脿掳虏脿卤聛 脿掳赂脿掳驴脿掳篓脿掳驴脿掳庐脿掳戮脿掳虏脿掳篓脿掳驴 脿掳陇脿卤聠脿掳掳脿掳聲脿卤聠脿掳聲脿卤聧脿掳聲脿掳驴脿掳聜脿掳職脿掳戮脿掳掳脿卤聛. Sources confirm that 脿掳娄脿掳驴脿掳碌脿掳聜脿掳聴脿掳陇 脿掳鹿脿卤聙脿掳掳脿卤聥脿掳炉脿掳驴脿掳篓脿卤聧 脿掳赂脿卤聦脿掳聜脿掳娄脿掳掳脿卤聧脿掳炉脿掳篓脿掳驴 脿掳聼脿掳戮脿掳虏脿卤聙脿掳碌脿卤聛脿掳隆脿卤聧芒聙聦脿掳聲脿掳驴 脿掳陋脿掳掳脿掳驴脿掳職脿掳炉脿掳聜 脿掳職脿卤聡脿掳赂脿掳驴脿掳聜脿掳娄脿掳驴 脿掳聢脿掳炉脿掳篓脿卤聡. 脿掳聢脿掳炉脿掳篓 脿掳娄脿掳掳脿卤聧脿掳露脿掳聲脿掳陇脿卤聧脿掳碌脿掳聜脿掳虏脿卤聥 脿掳職脿卤聡脿掳赂脿掳驴脿掳篓 脿掳聯 脿掳赂脿掳驴脿掳篓脿掳驴脿掳庐脿掳戮脿掳虏脿卤聥 脿掳赂脿卤聦脿掳聜脿掳娄脿掳掳脿卤聧脿掳炉脿掳篓脿掳驴 脿掳掳脿卤聠脿掳聜脿掳隆脿卤聥 脿掳鹿脿卤聙脿掳掳脿卤聥脿掳炉脿掳驴脿掳篓脿卤聧芒聙聦脿掳聴脿掳戮 脿掳陇脿卤聙脿掳赂脿卤聛脿掳聲脿卤聛脿掳篓脿卤聧脿掳篓脿掳戮脿掳掳脿卤聛. 脿掳娄脿卤聙脿掳篓脿掳驴脿掳聲脿掳聜脿掳聼脿卤聡 脿掳庐脿卤聛脿掳聜脿掳娄脿卤聛 脿掳聠脿掳庐脿卤聠 脿掳篓脿掳聼脿掳驴脿掳聜脿掳職脿掳驴脿掳篓 \u0027脿掳庐脿掳篓脿掳碌脿掳掳脿掳戮脿掳虏脿掳驴 脿掳陋脿卤聠脿掳鲁脿卤聧脿掳虏脿掳驴\u0027 脿掳掳脿掳驴脿掳虏脿卤聙脿掳聹脿卤聢脿掳聜脿掳娄脿掳驴. 脿掳陇脿掳掳脿卤聧脿掳碌脿掳戮脿掳陇 脿掳職脿掳驴脿掳聼脿卤聧脿掳聼脿掳驴脿掳卢脿掳戮脿掳卢脿卤聛 脿掳陇脿卤聙脿掳赂脿掳驴脿掳篓 \u0027脿掳聴脿卤聠脿掳虏脿卤聛脿掳陋脿卤聛\u0027 脿掳職脿掳驴脿掳陇脿卤聧脿掳掳脿掳聜 脿掳陋脿卤聧脿掳掳脿卤聡脿掳聲脿卤聧脿掳路脿掳聲脿卤聛脿掳虏脿掳聲脿卤聛 脿掳庐脿卤聛脿掳聜脿掳娄脿卤聛脿掳聲脿卤聤脿掳職脿卤聧脿掳職脿掳驴脿掳聜脿掳娄脿掳驴. 脿掳聡脿掳聜脿掳隆脿掳赂脿卤聧脿掳聼脿卤聧脿掳掳脿卤聙脿掳虏脿卤聥 脿掳聡脿掳虏脿掳戮 脿掳篓脿掳聼脿卤聛脿掳隆脿卤聛, 脿掳娄脿掳掳脿卤聧脿掳露脿掳聲脿卤聛脿掳隆脿卤聛, 脿掳篓脿掳驴脿掳掳脿卤聧脿掳庐脿掳戮脿掳陇脿掳聴脿掳戮 脿掳聠脿掳聲脿掳聼脿卤聧脿掳聼脿卤聛脿掳聲脿卤聛脿掳篓脿卤聧脿掳篓 脿掳職脿掳驴脿掳聼脿卤聧脿掳聼脿掳驴脿掳卢脿掳戮脿掳卢脿卤聛. 脿掳掳脿掳戮脿掳聹脿掳聲脿卤聙脿掳炉脿掳戮脿掳虏脿卤聧脿掳虏脿卤聥脿掳篓脿卤聜 脿掳聣脿掳篓脿卤聧脿掳篓脿掳戮脿掳掳脿卤聛. 脿掳陇脿卤聤脿掳虏脿卤聛脿掳陇 脿掳聹脿掳篓脿掳陇脿掳戮 脿掳陋脿掳戮脿掳掳脿卤聧脿掳聼脿卤聙脿掳虏脿卤聥 脿掳職脿卤聡脿掳掳脿掳戮脿掳掳脿卤聛. 1998脿掳虏脿卤聥 脿掳颅脿掳戮脿掳聹脿掳戮脿掳陋脿掳戮脿掳虏脿卤聥脿掳聲脿掳驴 脿掳碌脿卤聠脿掳鲁脿卤聧脿掳虏脿掳戮脿掳掳脿卤聛. 脿掳庐脿掳戮脿掳聹脿卤聙 脿掳陋脿卤聧脿掳掳脿掳搂脿掳戮脿掳篓脿掳驴 脿掳碌脿掳戮脿掳聹脿卤聧 脿掳陋脿卤聡脿掳炉脿掳驴, 脿掳聨脿掳虏脿卤聧.脿掳聲脿卤聠 脿掳\u0085脿掳娄脿卤聧脿掳碌脿掳戮脿掳篓脿卤聙, 脿掳碌脿卤聠脿掳聜脿掳聲脿掳炉脿卤聧脿掳炉 脿掳篓脿掳戮脿掳炉脿掳隆脿卤聛, 脿掳碌脿掳驴脿掳娄脿卤聧脿掳炉脿掳戮 脿掳赂脿掳戮脿掳聴脿掳掳脿卤聧 脿掳陇脿掳娄脿掳驴脿掳陇脿掳掳脿卤聛脿掳虏脿掳陇脿卤聥 脿掳聢脿掳炉脿掳篓脿掳聲脿卤聛 脿掳赂脿掳篓脿卤聧脿掳篓脿掳驴脿掳鹿脿掳驴脿掳陇 脿掳赂脿掳聜脿掳卢脿掳聜脿掳搂脿掳戮脿掳虏脿卤聛 脿掳聣脿掳篓脿卤聧脿掳篓脿掳戮脿掳炉脿掳驴.\u003c/p\u003e\n\u003cp\u003e\u003ci\u003e芒聫漏 What\u0027s Next: 1998脿掳虏脿卤聥 脿掳颅脿掳戮脿掳聹脿掳戮脿掳陋脿掳戮脿掳虏脿卤聥脿掳聲脿掳驴 脿掳碌脿卤聠脿掳鲁脿卤聧脿掳虏脿掳戮脿掳掳脿卤聛.\u003c/i\u003e\u003c/p\u003e",
                         "category":  "Home",
                         "slug":  "脿掳聼脿掳虏脿掳碌脿掳隆脿掳虏-脿掳碌脿掳路脿掳娄-脿掳職脿掳篓脿掳陋脿掳炉脿掳篓-脿掳陋脿掳掳脿掳庐脿掳聳-脿掳娄脿掳掳脿掳露脿掳聲-脿掳篓脿掳掳脿掳庐脿掳陇",
                         "tags":  [
                                      "news",
                                      "home"
                                  ],
                         "content_hash":  "3d67df32e41b67f020816dc926a8b45798d45a5d20111f7702a9c1202b6129b3",
                         "is_duplicate":  false,
                         "flag":  "A",
                         "ai_status":  "LOCAL_PARAPHRASE",
                         "rank_score":  0.0,
                         "image_url":  "/placeholders/general.png",
                         "author":  null,
                         "submitted_by":  null,
                         "created_at":  "2026-04-22T02:02:29Z",
                         "updated_at":  "2026-04-22T02:10:03.864364Z",
                         "processed_at":  "2026-04-22T02:06:32.717568Z",
                         "source_name":  "Sakshi"
                     }
                 ],
    "total":  319,
    "page":  1,
    "page_size":  1,
    "total_pages":  319
}
